{
  "reflection": [
    {
      "type": "[B"
    },
    {
      "type": "[C"
    },
    {
      "type": "[D"
    },
    {
      "type": "[F"
    },
    {
      "type": "[I"
    },
    {
      "type": "[J"
    },
    {
      "type": "[Ljava.lang.String;"
    },
    {
      "type": "[Ljavax.management.openmbean.CompositeData;"
    },
    {
      "type": "[S"
    },
    {
      "type": "[Z"
    },
    {
      "type": "cats.effect.metrics.CpuStarvation"
    },
    {
      "type": "cats.effect.Signal"
    },
    {
      "type": "cats.effect.metrics.CpuStarvationMBean"
    },
    {
      "type": "cats.effect.std.Console$",
      "fields": [
        {
          "name": "0bitmap$1"
        }
      ]
    },
    {
      "type": "cats.effect.unsafe.Head",
      "fields": [
        {
          "name": "head"
        }
      ]
    },
    {
      "type": "cats.effect.unsafe.Tail",
      "fields": [
        {
          "name": "tailPublisher"
        }
      ]
    },
    {
      "type": "cats.effect.unsafe.TimerSkipListNodeBase",
      "fields": [
        {
          "name": "callback"
        }
      ]
    },
    {
      "type": "cats.effect.unsafe.metrics.ComputePoolSampler"
    },
    {
      "type": "cats.effect.unsafe.metrics.ComputePoolSamplerMBean"
    },
    {
      "type": "cats.effect.unsafe.metrics.LiveFiberSnapshotTrigger"
    },
    {
      "type": "cats.effect.unsafe.metrics.LiveFiberSnapshotTriggerMBean"
    },
    {
      "type": "cats.effect.unsafe.metrics.LocalQueueSampler"
    },
    {
      "type": "cats.effect.unsafe.metrics.LocalQueueSamplerMBean"
    },
    {
      "type": "ch.qos.logback.classic.BasicConfigurator",
      "methods": [
        {
          "name": "<init>",
          "parameterTypes": []
        }
      ]
    },
    {
      "type": "ch.qos.logback.classic.joran.SerializedModelConfigurator",
      "methods": [
        {
          "name": "<init>",
          "parameterTypes": []
        }
      ]
    },
    {
      "type": "ch.qos.logback.classic.spi.LogbackServiceProvider"
    },
    {
      "type": "ch.qos.logback.classic.util.DefaultJoranConfigurator",
      "methods": [
        {
          "name": "<init>",
          "parameterTypes": []
        }
      ]
    },
    {
      "type": "com.sun.management.GarbageCollectorMXBean"
    },
    {
      "type": "com.sun.management.GcInfo"
    },
    {
      "type": "com.sun.management.HotSpotDiagnosticMXBean"
    },
    {
      "type": "com.sun.management.ThreadMXBean"
    },
    {
      "type": "com.sun.management.UnixOperatingSystemMXBean"
    },
    {
      "type": "com.sun.management.VMOption"
    },
    {
      "type": "com.sun.management.internal.GarbageCollectorExtImpl"
    },
    {
      "type": "com.sun.management.internal.HotSpotDiagnostic"
    },
    {
      "type": "com.sun.management.internal.HotSpotThreadImpl"
    },
    {
      "type": "com.sun.management.internal.OperatingSystemImpl"
    },
    {
      "type": "java.io.FilePermission"
    },
    {
      "type": "java.lang.Boolean",
      "fields": [
        {
          "name": "TYPE"
        }
      ]
    },
    {
      "type": "java.lang.Byte",
      "fields": [
        {
          "name": "TYPE"
        }
      ]
    },
    {
      "type": "java.lang.Character",
      "fields": [
        {
          "name": "TYPE"
        }
      ]
    },
    {
      "type": "java.lang.ClassValue"
    },
    {
      "type": "java.lang.Deprecated"
    },
    {
      "type": "java.lang.Double",
      "fields": [
        {
          "name": "TYPE"
        }
      ]
    },
    {
      "type": "java.lang.Float",
      "fields": [
        {
          "name": "TYPE"
        }
      ]
    },
    {
      "type": "java.lang.Integer",
      "fields": [
        {
          "name": "TYPE"
        }
      ]
    },
    {
      "type": "java.lang.Long",
      "fields": [
        {
          "name": "TYPE"
        }
      ]
    },
    {
      "type": "java.lang.RuntimePermission"
    },
    {
      "type": "java.lang.Short",
      "fields": [
        {
          "name": "TYPE"
        }
      ]
    },
    {
      "type": "java.lang.StackTraceElement"
    },
    {
      "type": "java.lang.String",
      "fields": [
        {
          "name": "TYPE"
        }
      ]
    },
    {
      "type": "java.lang.Thread",
      "fields": [
        {
          "name": "threadLocalRandomProbe"
        }
      ]
    },
    {
      "type": "java.lang.Void",
      "fields": [
        {
          "name": "TYPE"
        }
      ]
    },
    {
      "type": "java.lang.invoke.VarHandle",
      "methods": [
        {
          "name": "releaseFence",
          "parameterTypes": []
        }
      ]
    },
    {
      "type": "java.lang.management.BufferPoolMXBean"
    },
    {
      "type": "java.lang.management.ClassLoadingMXBean"
    },
    {
      "type": "java.lang.management.CompilationMXBean"
    },
    {
      "type": "java.lang.management.LockInfo"
    },
    {
      "type": "java.lang.management.ManagementPermission",
      "methods": [
        {
          "name": "<init>",
          "parameterTypes": [
            "java.lang.String"
          ]
        }
      ]
    },
    {
      "type": "java.lang.management.MemoryMXBean"
    },
    {
      "type": "java.lang.management.MemoryManagerMXBean"
    },
    {
      "type": "java.lang.management.MemoryPoolMXBean"
    },
    {
      "type": "java.lang.management.MemoryUsage"
    },
    {
      "type": "java.lang.management.MonitorInfo"
    },
    {
      "type": "java.lang.management.PlatformLoggingMXBean"
    },
    {
      "type": "java.lang.management.RuntimeMXBean"
    },
    {
      "type": "java.lang.management.ThreadInfo"
    },
    {
      "type": "java.math.BigDecimal"
    },
    {
      "type": "java.math.BigInteger"
    },
    {
      "type": "java.net.NetPermission"
    },
    {
      "type": "java.net.SocketPermission"
    },
    {
      "type": "java.net.URLPermission",
      "methods": [
        {
          "name": "<init>",
          "parameterTypes": [
            "java.lang.String",
            "java.lang.String"
          ]
        }
      ]
    },
    {
      "type": "java.security.AllPermission"
    },
    {
      "type": "java.security.SecurityPermission"
    },
    {
      "type": "java.util.Date"
    },
    {
      "type": "java.util.PropertyPermission",
      "methods": [
        {
          "name": "<init>",
          "parameterTypes": [
            "java.lang.String",
            "java.lang.String"
          ]
        }
      ]
    },
    {
      "type": "java.util.concurrent.atomic.AtomicBoolean",
      "fields": [
        {
          "name": "value"
        }
      ]
    },
    {
      "type": "java.util.concurrent.atomic.Striped64",
      "fields": [
        {
          "name": "base"
        },
        {
          "name": "cellsBusy"
        }
      ]
    },
    {
      "type": "java.util.logging.LogManager",
      "methods": [
        {
          "name": "getLoggingMXBean",
          "parameterTypes": []
        }
      ]
    },
    {
      "type": "java.util.logging.LoggingMXBean"
    },
    {
      "type": "javax.management.MBeanOperationInfo"
    },
    {
      "type": "javax.management.MBeanServerBuilder",
      "methods": [
        {
          "name": "<init>",
          "parameterTypes": []
        }
      ]
    },
    {
      "type": "javax.management.ObjectName"
    },
    {
      "type": "javax.management.StandardEmitterMBean"
    },
    {
      "type": "javax.management.openmbean.CompositeData"
    },
    {
      "type": "javax.management.openmbean.OpenMBeanOperationInfoSupport"
    },
    {
      "type": "javax.management.openmbean.TabularData"
    },
    {
      "type": "javax.smartcardio.CardPermission"
    },
    {
      "type": "jdk.management.jfr.ConfigurationInfo"
    },
    {
      "type": "jdk.management.jfr.EventTypeInfo"
    },
    {
      "type": "jdk.management.jfr.FlightRecorderMXBean"
    },
    {
      "type": "jdk.management.jfr.FlightRecorderMXBeanImpl"
    },
    {
      "type": "jdk.management.jfr.RecordingInfo"
    },
    {
      "type": "jdk.management.jfr.SettingDescriptorInfo"
    },
    {
      "type": "sun.management.ClassLoadingImpl"
    },
    {
      "type": "sun.management.CompilationImpl"
    },
    {
      "type": "sun.management.ManagementFactoryHelper$1"
    },
    {
      "type": "sun.management.ManagementFactoryHelper$PlatformLoggingImpl"
    },
    {
      "type": "sun.management.MemoryImpl"
    },
    {
      "type": "sun.management.MemoryManagerImpl"
    },
    {
      "type": "sun.management.MemoryPoolImpl"
    },
    {
      "type": "sun.management.RuntimeImpl"
    },
    {
      "type": "sun.misc.Signal",
      "methods": [
        {
          "name": "<init>",
          "parameterTypes": [
            "java.lang.String"
          ]
        },
        {
          "name": "handle",
          "parameterTypes": [
            "sun.misc.Signal",
            "sun.misc.SignalHandler"
          ]
        }
      ]
    },
    {
      "type": "sun.misc.SignalHandler"
    },
    {
      "type": "sun.misc.Unsafe",
      "fields": [
        {
          "name": "theUnsafe"
        }
      ]
    },
    {
      "type": "thingprocessor.Main$",
      "fields": [
        {
          "name": "cats$effect$IOApp$$queue$lzy1"
        }
      ]
    },
    {
      "type": "thingprocessor.ThingClient",
      "fields": [
        {
          "name": "given_Logger_F$lzy1"
        }
      ]
    },
    {
      "type": "thingprocessor.ThingService",
      "fields": [
        {
          "name": "given_Logger_F$lzy1"
        }
      ]
    },
    {
      "type": {
        "proxy": [
          "sun.misc.SignalHandler"
        ]
      }
    }
  ],
  "resources": [
    {
      "glob": "META-INF/services/ch.qos.logback.classic.spi.Configurator"
    },
    {
      "glob": "META-INF/services/java.lang.System$LoggerFinder"
    },
    {
      "glob": "META-INF/services/java.net.spi.InetAddressResolverProvider"
    },
    {
      "glob": "META-INF/services/java.time.zone.ZoneRulesProvider"
    },
    {
      "glob": "META-INF/services/org.slf4j.spi.SLF4JServiceProvider"
    },
    {
      "glob": "logback-test.scmo"
    },
    {
      "glob": "logback-test.xml"
    },
    {
      "glob": "logback.scmo"
    },
    {
      "glob": "logback.xml"
    },
    {
      "module": "jdk.jfr",
      "glob": "jdk/jfr/internal/query/view.ini"
    }
  ],
  
  "bundles": [],
  "jni": [
    {
      "type": "[Lcom.sun.management.internal.DiagnosticCommandArgumentInfo;"
    },
    {
      "type": "[Lcom.sun.management.internal.DiagnosticCommandInfo;"
    },
    {
      "type": "com.sun.management.internal.DiagnosticCommandArgumentInfo",
      "methods": [
        {
          "name": "<init>",
          "parameterTypes": [
            "java.lang.String",
            "java.lang.String",
            "java.lang.String",
            "java.lang.String",
            "boolean",
            "boolean",
            "boolean",
            "int"
          ]
        }
      ]
    },
    {
      "type": "com.sun.management.internal.DiagnosticCommandInfo",
      "methods": [
        {
          "name": "<init>",
          "parameterTypes": [
            "java.lang.String",
            "java.lang.String",
            "java.lang.String",
            "java.lang.String",
            "java.lang.String",
            "java.lang.String",
            "boolean",
            "java.util.List"
          ]
        }
      ]
    },
    {
      "type": "java.lang.Boolean",
      "methods": [
        {
          "name": "getBoolean",
          "parameterTypes": [
            "java.lang.String"
          ]
        }
      ]
    },
    {
      "type": "java.util.Arrays",
      "methods": [
        {
          "name": "asList",
          "parameterTypes": [
            "java.lang.Object[]"
          ]
        }
      ]
    },
    {
      "type": "sun.management.VMManagementImpl",
      "fields": [
        {
          "name": "compTimeMonitoringSupport"
        },
        {
          "name": "currentThreadCpuTimeSupport"
        },
        {
          "name": "objectMonitorUsageSupport"
        },
        {
          "name": "otherThreadCpuTimeSupport"
        },
        {
          "name": "remoteDiagnosticCommandsSupport"
        },
        {
          "name": "synchronizerUsageSupport"
        },
        {
          "name": "threadAllocatedMemorySupport"
        },
        {
          "name": "threadContentionMonitoringSupport"
        }
      ]
    }
  ]
}
